…
    ## # A tibble: 2 × 2
    ##   curb   Count
    ##   <chr>  <int>
    ## 1 N      12804
    ## 2 Y     133807

``` r
expect.1=vancouver_trees %>% group_by(curb) %>% drop_na("curb") %>%summarise(Count = n())


#Example 2: neighbourhood_name --> many categories
(example.2=group.filterNA.summary(vancouver_trees, "neighbourhood_name")) #expect summary table of numbers of counts of different neighbourhood names
```

    ## # A tibble: 22 × 2
    ##    neighbourhood_name       Count
    ##    <chr>                    <int>
    ##  1 ARBUTUS-RIDGE             5169
    ##  2 DOWNTOWN                  5159
    ##  3 DUNBAR-SOUTHLANDS         9415
    ##  4 FAIRVIEW                  4002
    ##  5 GRANDVIEW-WOODLAND        6703
    ##  6 HASTINGS-SUNRISE         10547
    ##  7 KENSINGTON-CEDAR COTTAGE 11042
    ##  8 KERRISDALE                6936
    ##  9 KILLARNEY                 6148
    ## 10 KITSILANO                 8115
    ## # … with 12 more rows
…
``` r
expect.3=vancouver_trees %>% group_by(height_range_id) %>% drop_na("height_range_id") %>%summarise(Count = n())

#Example 4: cultivar_name --> Good because it has a lot of NA values
(example.4=group.filterNA.summary(vancouver_trees, "cultivar_name")) #expect summary table of numbers of counts of cultivars
```

    ## # A tibble: 293 × 2
    ##    cultivar_name   Count
    ##    <chr>           <int>
    ##  1 ACCOLADE           60
    ##  2 AKEBONO          2384
    ##  3 ALIA                3
    ##  4 ALLGOLD            78
    ##  5 ALMIRA              9
    ##  6 AMANOGAWA          68
    ##  7 AMERICAN BEAUTY     3
    ##  8 APOLLO             17
    ##  9 ARIE PETERS       697
    ## 10 ARISTOCRAT        607
    ## # … with 283 more rows
…
#Example 5: error example
(example.5=group.filterNA.summary(vancouver_trees, 10)) #expect error because y is not a variable name
```

    ## Error in group.filterNA.summary(vancouver_trees, 10): Sorry, but this function works only for non-numeric inputs!
    ## You have input an object of class: logical

``` r
#Example 6: diameter --> this one is good because the diameter is actually a numerical variable. This function should be able to still output a summary table of the value counts (it will be a much larger table...)
(example.6=group.filterNA.summary(vancouver_trees, "diameter")) #expect summary table of numbers of counts of diameters
```

    ## # A tibble: 520 × 2
    ##    diameter Count
    ##       <dbl> <int>
    ##  1     0       92
    ##  2     0.25     6
    ##  3     0.5     22
    ##  4     0.75     2
    ##  5     0.8      1
    ##  6     1       60
    ##  7     1.05     1
    ##  8     1.25    10
    ##  9     1.3      2
    ## 10     1.5     76
    ## # … with 510 more rows
…
